module nififix

go 1.17

require (
	cloud.google.com/go/storage v1.18.2
	github.com/go-logr/logr v1.2.0
	github.com/urfave/cli/v2 v2.3.0
	google.golang.org/api v0.59.0
)

require (
	cloud.google.com/go v0.97.0 // indirect
	github.com/cpuguy83/go-md2man/v2 v2.0.0-20190314233015-f79a8a8ca69d // indirect
	github.com/golang/groupcache v0.0.0-20200121045136-8c9f03a8e57e // indirect
	github.com/golang/protobuf v1.5.2 // indirect
	github.com/google/go-cmp v0.5.6 // indirect
	github.com/googleapis/gax-go/v2 v2.1.1 // indirect
	github.com/russross/blackfriday/v2 v2.0.1 // indirect
	github.com/shurcooL/sanitized_anchor_name v1.0.0 // indirect
	go.opencensus.io v0.23.0 // indirect
	golang.org/x/net v0.0.0-20210503060351-7fd8e65b6420 // indirect
	golang.org/x/oauth2 v0.0.0-20211005180243-6b3c2da341f1 // indirect
	golang.org/x/sys v0.0.0-20211007075335-d3039528d8ac // indirect
	golang.org/x/text v0.3.6 // indirect
	golang.org/x/xerrors v0.0.0-20200804184101-5ec99f83aff1 // indirect
	google.golang.org/appengine v1.6.7 // indirect
	google.golang.org/genproto v0.0.0-20211016002631-37fc39342514 // indirect
	google.golang.org/grpc v1.40.0 // indirect
	google.golang.org/protobuf v1.27.1 // indirect
)
